-------------------------------------------------------------------------------
Test set: edu.uclm.esi.domain.TestsPerson2JSON
-------------------------------------------------------------------------------
Tests run: 2, Failures: 0, Errors: 0, Skipped: 0, Time elapsed: 0 sec
