-------------------------------------------------------------------------------
Test set: edu.uclm.esi.domain.TestPerson
-------------------------------------------------------------------------------
Tests run: 1, Failures: 0, Errors: 0, Skipped: 0, Time elapsed: 0.059 sec
